<?xml version="1.0" standalone="no"?>
<!DOCTYPE svg PUBLIC "-//W3C//DTD SVG 20010904//EN"
 "http://www.w3.org/TR/2001/REC-SVG-20010904/DTD/svg10.dtd">
<svg version="1.0" xmlns="http://www.w3.org/2000/svg"
 width="425.000000pt" height="425.000000pt" viewBox="0 0 425.000000 425.000000"
 preserveAspectRatio="xMidYMid meet">
<metadata>
Created by potrace 1.11, written by Peter Selinger 2001-2013
</metadata>
<g transform="translate(0.000000,425.000000) scale(0.100000,-0.100000)"
fill="#000000" stroke="none">
<path d="M1890 2575 c0 -4 8 -14 18 -21 16 -13 16 -13 -3 -14 -16 0 -13 -4 13
-20 18 -11 35 -27 38 -35 4 -9 -12 -54 -35 -101 -22 -47 -38 -91 -34 -97 3 -6
1 -7 -5 -3 -7 4 -12 3 -12 -3 0 -5 -3 -18 -7 -28 -6 -16 -5 -16 10 -4 14 11
14 6 -4 -33 -11 -26 -19 -52 -16 -59 2 -6 14 15 27 46 l24 58 80 -3 81 -3 27
-55 c28 -57 38 -54 14 4 -7 18 -10 39 -6 47 5 9 -17 72 -57 167 -62 145 -66
152 -93 152 -16 0 -35 3 -44 6 -9 3 -16 3 -16 -1z m103 -253 c-25 -2 -47 -1
-50 1 -5 6 29 80 42 89 6 5 19 -12 31 -40 l21 -47 -44 -3z"/>
<path d="M2524 2565 c-8 -28 -10 -116 -3 -121 5 -3 9 2 9 10 0 9 9 25 20 36
16 16 33 20 95 20 l75 0 0 -124 c0 -98 3 -126 15 -136 13 -10 15 -9 15 11 0
13 3 68 6 121 4 54 3 118 0 142 l-7 45 -111 3 c-68 2 -112 -1 -114 -7z"/>
<path d="M926 2555 c19 -14 19 -14 0 -15 -14 0 -6 -9 25 -29 83 -55 88 -65 91
-171 4 -114 21 -126 28 -20 3 41 8 75 12 75 9 0 216 -186 337 -302 34 -32 51
-41 51 -25 0 4 -38 43 -85 86 -81 74 -103 102 -70 89 9 -3 -14 23 -51 58 -36
35 -70 63 -75 62 -5 -2 -8 0 -6 5 1 4 -45 51 -103 105 -90 84 -109 97 -139 97
-33 0 -34 -1 -15 -15z"/>
<path d="M1039 2557 c6 -8 9 -16 6 -19 -4 -4 28 -35 189 -183 6 -5 59 -54 118
-108 59 -54 109 -93 112 -88 4 5 -13 28 -36 52 -24 23 -35 36 -25 29 9 -7 17
-8 17 -3 0 10 -104 112 -257 251 -57 51 -99 82 -113 82 -18 0 -20 -3 -11 -13z"/>
<path d="M1386 2555 c13 -10 15 -14 5 -15 -9 0 -4 -10 13 -26 25 -26 26 -31
26 -138 0 -111 8 -145 29 -132 7 5 11 50 11 127 0 113 1 121 24 144 15 15 20
26 13 29 -8 3 -7 8 3 15 11 8 -6 11 -64 11 -72 0 -78 -1 -60 -15z"/>
<path d="M2020 2552 c0 -25 24 -82 141 -341 l66 -146 39 -3 c37 -2 38 -1 20
13 -11 8 -30 15 -41 15 -18 0 -27 13 -48 68 -15 37 -25 77 -22 90 6 31 -118
316 -139 320 -10 2 -16 -4 -16 -16z"/>
<path d="M2790 2408 c0 -96 4 -157 9 -149 7 11 9 11 14 0 3 -8 6 36 6 96 2
159 0 155 80 155 64 -1 101 -14 101 -38 0 -6 5 -14 10 -17 6 -4 10 17 10 54
l0 61 -115 0 -115 0 0 -162z"/>
<path d="M3003 2414 c-32 -16 -59 -63 -50 -86 3 -7 6 -3 6 9 1 12 5 25 11 28
6 3 7 -1 4 -9 -5 -13 2 -16 37 -17 24 0 53 -4 64 -8 17 -7 15 -11 -20 -34 -57
-37 -154 -68 -230 -72 -13 0 -16 -48 -3 -56 15 -10 129 17 193 46 32 14 77 43
101 65 l42 39 66 -19 c85 -24 163 -60 254 -116 l72 -45 26 30 c14 17 29 31 33
31 8 0 41 -54 41 -69 0 -32 -108 -94 -236 -134 -183 -58 -492 -61 -1099 -12
-368 30 -623 39 -1102 39 l-492 1 42 44 c23 24 35 40 27 36 -8 -4 5 13 29 38
24 25 49 43 54 40 6 -3 7 -1 4 4 -4 6 5 23 19 39 64 73 60 81 -5 11 -77 -82
-218 -192 -313 -246 -67 -37 -78 -50 -40 -43 26 4 27 4 7 -12 -19 -16 -18 -16
25 -11 508 60 1151 57 1700 -9 63 -7 118 -12 123 -9 4 2 7 0 7 -6 0 -5 -9 -13
-21 -16 -17 -6 -20 -14 -17 -48 3 -38 6 -42 32 -45 16 -2 33 1 39 7 8 8 4 11
-13 13 -14 0 -2 4 25 7 49 6 50 6 48 39 l-1 34 51 -6 c29 -4 95 -13 147 -20
150 -22 489 -40 628 -33 271 13 389 77 437 235 17 59 17 63 1 107 -21 55 -48
76 -90 69 -23 -3 -26 -2 -12 4 15 7 16 10 5 14 -178 68 -320 110 -454 137
-162 31 -168 32 -202 15z m-533 -560 c0 -2 -18 -4 -41 -4 -22 0 -38 4 -35 8 5
8 76 4 76 -4z"/>
<path d="M2580 2200 l-75 -6 103 -2 c62 -1 102 2 102 8 0 10 -8 10 -130 0z"/>
<path d="M2675 2170 c-3 -5 -2 -10 4 -10 5 0 13 5 16 10 3 6 2 10 -4 10 -5 0
-13 -4 -16 -10z"/>
<path d="M1630 2162 c0 -17 58 -64 64 -53 4 6 -5 22 -21 36 -29 25 -43 31 -43
17z"/>
<path d="M2390 2162 c0 -13 45 -52 60 -52 8 0 0 13 -18 30 -35 32 -42 35 -42
22z"/>
<path d="M1612 2090 c12 -16 28 -30 35 -30 19 0 16 8 -14 35 -38 33 -48 31
-21 -5z"/>
<path d="M2372 2091 c20 -26 48 -41 48 -26 0 8 -54 54 -63 55 -5 0 2 -13 15
-29z"/>
<path d="M1010 2075 c-11 -13 -4 -15 51 -15 58 1 62 2 45 15 -26 19 -80 19
-96 0z"/>
<path d="M1760 2075 c-11 -13 -4 -15 50 -15 54 0 61 2 50 15 -7 8 -29 15 -50
15 -21 0 -43 -7 -50 -15z"/>
<path d="M2120 2075 c-12 -15 -10 -16 26 -13 42 3 50 21 11 26 -13 2 -30 -4
-37 -13z"/>
<path d="M2689 2074 c-11 -14 -9 -15 21 -12 18 2 35 9 38 16 6 18 -43 15 -59
-4z"/>
<path d="M2790 2075 c0 -11 11 -15 43 -15 39 1 41 2 23 15 -26 20 -66 19 -66
0z"/>
<path d="M890 1917 c-32 -11 -35 -16 -38 -57 -3 -33 1 -47 14 -57 18 -13 90
-18 118 -7 18 7 23 64 6 64 -5 0 -10 -9 -10 -20 0 -23 -37 -36 -75 -26 -21 5
-25 12 -25 41 0 31 3 35 25 35 18 0 25 5 25 20 0 11 -1 20 -2 19 -2 0 -19 -5
-38 -12z"/>
<path d="M1020 1861 c0 -41 4 -71 10 -71 6 0 10 28 10 64 0 36 -4 68 -10 71
-6 4 -10 -20 -10 -64z"/>
<path d="M1197 1916 c-11 -29 -8 -101 5 -114 7 -7 33 -12 58 -12 54 0 70 13
70 56 0 36 -13 44 -69 44 -29 0 -40 5 -48 22 -8 20 -10 20 -16 4z m103 -61
c18 -21 -4 -45 -42 -45 -30 0 -44 19 -34 45 3 9 18 15 34 15 16 0 35 -7 42
-15z"/>
<path d="M1496 1923 c-3 -3 -6 -35 -6 -70 0 -49 3 -63 15 -63 12 0 15 14 15
64 0 60 -8 84 -24 69z"/>
<path d="M1607 1912 c-21 -23 -25 -126 -4 -120 6 3 13 14 15 25 3 18 11 22 57
25 51 3 54 2 57 -21 2 -14 9 -26 16 -29 9 -3 12 15 12 68 0 53 -3 71 -12 67
-7 -2 -13 -18 -12 -36 0 -23 -4 -30 -14 -26 -7 3 -34 5 -58 5 -45 0 -61 16
-21 22 12 2 22 10 22 18 0 22 -39 24 -58 2z"/>
<path d="M1062 1878 c-15 -15 -15 -61 0 -76 13 -13 75 -16 102 -6 11 4 16 19
16 44 0 25 -5 40 -16 44 -27 10 -89 7 -102 -6z m93 -38 c0 -22 -5 -25 -37 -28
-30 -3 -37 1 -43 19 -9 26 7 38 49 36 26 -2 31 -6 31 -27z"/>
<path d="M1413 1876 c5 -12 0 -16 -17 -16 -37 0 -56 -10 -56 -30 0 -30 25 -41
82 -38 l53 3 0 45 c0 44 -1 45 -34 48 -27 3 -33 0 -28 -12z m45 -48 c-3 -8
-21 -13 -43 -13 -22 0 -40 5 -42 13 -3 8 9 12 42 12 33 0 45 -4 43 -12z"/>
<path d="M1777 1884 c-4 -4 -7 -27 -7 -51 0 -52 23 -56 28 -6 3 25 9 32 34 37
40 8 48 1 48 -40 0 -19 5 -34 11 -34 6 0 9 19 7 48 l-3 47 -55 3 c-31 2 -59 0
-63 -4z"/>
<path d="M1986 1875 c5 -11 -1 -15 -25 -15 -35 0 -55 -26 -40 -53 8 -13 24
-17 68 -17 52 0 59 2 65 23 9 34 7 44 -10 61 -21 21 -66 22 -58 1z m42 -47
c-5 -14 -51 -23 -74 -14 -27 10 -4 26 37 26 28 0 39 -4 37 -12z"/>
<path d="M2077 1883 c-11 -10 -8 -93 3 -93 6 0 10 13 10 30 0 34 23 50 60 41
19 -5 26 -14 28 -39 3 -33 16 -42 26 -19 5 10 7 10 12 0 7 -16 134 -18 134 -3
0 6 -22 10 -49 10 -86 0 -92 46 -7 52 28 2 51 8 54 16 3 9 -14 12 -62 12 -59
0 -68 -2 -75 -22 l-8 -22 -5 22 c-5 19 -13 22 -60 22 -30 0 -58 -3 -61 -7z"/>
<path d="M1658 1497 l-5 -28 23 22 c26 24 33 39 10 20 -11 -9 -15 -9 -18 1 -3
7 -7 0 -10 -15z"/>
<path d="M1986 1490 c-13 -31 -29 -32 -19 -2 4 12 3 14 -4 7 -6 -5 -14 -21
-18 -34 -6 -20 -4 -23 9 -18 10 4 16 1 16 -8 0 -8 5 -15 11 -15 6 0 9 6 6 14
-3 7 0 19 6 25 11 11 18 61 9 61 -1 0 -9 -14 -16 -30z"/>
<path d="M2447 1503 c-2 -10 -8 -26 -12 -36 -6 -15 -3 -17 31 -11 22 3 55 7
74 7 33 1 92 37 60 37 -7 0 -19 -8 -27 -17 -14 -17 -14 -17 -9 1 6 16 4 17 -9
6 -13 -11 -14 -10 -8 6 6 17 5 17 -10 5 -9 -7 -17 -10 -17 -6 0 5 -9 0 -20
-10 -11 -10 -23 -15 -27 -12 -3 4 -1 7 5 7 7 0 12 5 12 11 0 6 -7 8 -16 5 -12
-4 -15 -2 -10 9 3 8 2 15 -3 15 -5 0 -11 -8 -14 -17z m78 -23 c3 -5 1 -10 -4
-10 -6 0 -11 5 -11 10 0 6 2 10 4 10 3 0 8 -4 11 -10z"/>
<path d="M1902 1485 c-17 -36 -15 -44 8 -42 11 1 20 4 20 8 0 4 3 16 6 26 5
16 4 16 -11 -2 -16 -19 -16 -19 -10 8 9 34 2 35 -13 2z"/>
<path d="M2196 1482 c-10 -19 -15 -36 -12 -39 3 -3 9 2 13 12 6 17 7 17 13 1
4 -14 9 -9 24 20 13 29 14 35 3 25 -12 -9 -16 -9 -19 1 -3 7 -12 -1 -22 -20z"/>
<path d="M2282 1485 c-7 -14 -12 -30 -12 -35 0 -15 37 -12 44 3 5 10 7 10 12
0 3 -7 10 -13 16 -13 5 0 8 6 5 13 -2 6 3 17 11 23 12 8 8 11 -16 11 -21 0
-34 -7 -41 -21 -9 -18 -10 -16 -5 12 7 39 1 41 -14 7z"/>
<path d="M1696 1493 c-3 -4 -6 -13 -5 -22 0 -12 3 -11 9 4 7 18 8 19 15 3 9
-22 31 -23 39 -2 10 26 7 29 -9 8 -9 -12 -13 -13 -10 -4 5 16 -26 26 -39 13z"/>
<path d="M1770 1481 c-13 -26 -13 -31 3 -25 7 2 13 13 13 24 0 25 -3 25 -16 1z"/>
<path d="M1831 1491 c-9 -6 -10 -11 -2 -15 6 -4 11 -2 11 5 0 7 3 9 7 5 5 -4
0 -13 -9 -20 -16 -12 -14 -13 12 -14 35 -1 36 2 12 28 -11 12 -22 16 -31 11z"/>
<path d="M1870 1490 c0 -5 5 -10 11 -10 5 0 7 5 4 10 -3 6 -8 10 -11 10 -2 0
-4 -4 -4 -10z"/>
<path d="M2027 1493 c-5 -7 -5 -18 -2 -23 4 -6 3 -9 -2 -8 -4 2 -10 -1 -12 -7
-2 -5 12 -13 33 -16 26 -4 36 -2 36 8 0 18 10 16 27 -4 10 -13 13 -14 10 -3
-2 8 2 22 9 31 12 14 11 16 -15 16 -20 0 -33 -7 -40 -21 -10 -19 -11 -19 -6 4
6 23 5 24 -9 7 -14 -18 -15 -18 -18 5 -2 16 -6 19 -11 11z"/>
<path d="M2394 1465 c-19 -46 -18 -52 5 -29 10 10 16 25 13 33 -3 9 -1 12 6 7
7 -4 12 -1 12 8 0 28 -21 17 -36 -19z"/>
<path d="M2245 1469 c-4 -11 -4 -23 -1 -26 3 -4 6 1 6 10 0 10 5 17 10 17 6 0
10 5 10 10 0 18 -19 10 -25 -11z"/>
<path d="M2130 1439 c0 -5 5 -7 10 -4 6 3 10 8 10 11 0 2 -4 4 -10 4 -5 0 -10
-5 -10 -11z"/>
</g>
</svg>
